EDA For DDS Project
…
Introduction

The following is an analysis of market trends pertaining to 2,410 US craft beers brewed at 558 breweries. In this presentation, our goal is to model and communicate relationships between brewery location, beer alcoholic content (ABV), and beer bitterness (IBU).

Question 1

Lets start with a simple question: Which state has the most breweries? A simple tally reveals that Colorado is the state with the most breweries. California and Michigan follow closely behind.

breweries %>%
  group_by(State) %>%
  summarize(count=n()) %>%
  arrange(desc(count))

## # A tibble: 51 x 2
##    State count
##    <fct> <int>
##  1 " CO"    47
##  2 " CA"    39
##  3 " MI"    32
##  4 " OR"    29
##  5 " TX"    28
##  6 " PA"    25
##  7 " MA"    23
##  8 " WA"    23
##  9 " IN"    22
## 10 " WI"    20
## #  with 41 more rows
…
Which brewery produces the most individual beer types?

dat %>%
  group_by(Brewery) %>%
  summarise(count = n()) %>%
  arrange(desc(count))

## # A tibble: 551 x 2
##    Brewery                    count
##    <fct>                      <int>
##  1 Brewery Vivant                62
##  2 Oskar Blues Brewery           46
##  3 Sun King Brewing Company      38
##  4 Cigar City Brewing Company    25
##  5 Sixpoint Craft Ales           24
##  6 Hopworks Urban Brewery        23
##  7 Stevens Point Brewery         22
##  8 21st Amendment Brewery        20
##  9 Great Crescent Brewery        20
## 10 Bonfire Brewing Company       19
## #  with 541 more rows

Same question, but for city

dat %>%
  group_by(City) %>%
  summarise(count = n()) %>%
  arrange(desc(count))

## # A tibble: 384 x 2
##    City         count
##    <fct>        <int>
##  1 Grand Rapids    66
##  2 Portland        64
##  3 Chicago         55
##  4 Indianapolis    43
##  5 San Diego       42
##  6 Boulder         41
##  7 Denver          40
##  8 Brooklyn        38
##  9 Seattle         35
## 10 Longmont        33
## #  with 374 more rows
…
  pred_temp <- knn(train = train_sim[,3:4], test = test_sim[,3:4], cl = train_sim$beer_type, k = i)
  
  accs[[i]] <- sum(if_else(test_sim$beer_type == pred_temp,1,0)) / length(pred_temp)
  }
  
  best_k[[j]] <- which.max(accs)
  
}
best_k <- as.data.frame(best_k)
best_k %>%
  group_by(best_k) %>%
  summarise(count = n()) %>%
    arrange(desc(count))

## # A tibble: 46 x 2
##    best_k count
##     <dbl> <int>
##  1      5   267
##  2      6   131
##  3      1   113
##  4      4   107
##  5      3    93
##  6      7    56
##  7      8    35
##  8      9    17
##  9     10    12
## 10      2    11
## #  with 36 more rows
…
